planning/OutingNotFoundAdvice.class
planning/LoadDatabase.class
planning/endpoints/HealthServlet.class
planning/OutingController.class
planning/OutingRepository.class
planning/endpoints/AuthInfoServlet.class
planning/endpoints/EchoServlet.class
planning/OutingNotFoundException.class
planning/PayrollApplication.class
planning/Outing.class
planning/endpoints/AliveServlet.class
